workFlow/getCSVResult.class
fileOperation/CreateStoryFile.class
processResult/FanScenariosResult.class
workFlow/makeRefactorStory.class
parser/ParsingTheInitialStory.class
processResult/ParserString2Story.class
parser/CSVReporter.class
steps/LoginSteps.class
processResult/ParserResult.class
workFlow/runStories.class
workFlow/StoryRunner.class
fileOperation/CurrentPath.class
steps/WebLogin.class
